{
  "dependencies": {
    "neovim": {
      "version": "4.2.1",
      "from": "neovim",
      "resolved": "https://registry.npmjs.org/neovim/-/neovim-4.2.1.tgz"
    },
    "npm": {
      "version": "6.4.1",
      "from": "file:npm-6.4.1.tgz",
      "resolved": "/build/npm/src/cli-6.4.1/npm-6.4.1.tgz"
    }
  }
}
